<?xml version="1.0" encoding="UTF-8"?>
<svg width="6px" height="16px" viewBox="0 0 6 16" version="1.1" xmlns="http://www.w3.org/2000/svg" xmlns:xlink="http://www.w3.org/1999/xlink">
    <!-- Generator: Sketch 40.3 (33839) - http://www.bohemiancoding.com/sketch -->
    <title>arrow-small-down</title>
    <desc>Created with Sketch.</desc>
    <defs></defs>
    <g stroke="none" stroke-width="1" fill-rule="evenodd">
        <g>
            <polygon points="4 7 4 5 2 5 2 7 0 7 3 11 6 7"></polygon>
        </g>
    </g>
</svg>