<?xml version="1.0" encoding="UTF-8"?>
<svg width="16px" height="16px" viewBox="0 0 16 16" version="1.1" xmlns="http://www.w3.org/2000/svg" xmlns:xlink="http://www.w3.org/1999/xlink">
    <!-- Generator: Sketch 40.3 (33839) - http://www.bohemiancoding.com/sketch -->
    <title>graph</title>
    <desc>Created with Sketch.</desc>
    <defs></defs>
    <g stroke="none" stroke-width="1" fill-rule="evenodd">
        <g>
            <path d="M16,14 L16,15 L0,15 L0,0 L1,0 L1,14 L16,14 L16,14 Z M5,13 L3,13 L3,8 L5,8 L5,13 L5,13 Z M9,13 L7,13 L7,3 L9,3 L9,13 L9,13 Z M13,13 L11,13 L11,6 L13,6 L13,13 L13,13 Z"></path>
        </g>
    </g>
</svg>