<?xml version="1.0" encoding="UTF-8"?>
<svg width="6px" height="16px" viewBox="0 0 6 16" version="1.1" xmlns="http://www.w3.org/2000/svg" xmlns:xlink="http://www.w3.org/1999/xlink">
    <!-- Generator: Sketch 40.3 (33839) - http://www.bohemiancoding.com/sketch -->
    <title>italic</title>
    <desc>Created with Sketch.</desc>
    <defs></defs>
    <g stroke="none" stroke-width="1" fill-rule="evenodd">
        <g>
            <path d="M2.81,5 L4.79,5 L3,14 L1,14 L2.81,5 L2.81,5 Z M3.17,2.3 C3.17,1.6 3.75,1 4.5,1 C5.06,1 5.63,1.38 5.63,2.03 C5.63,2.78 5.04,3.33 4.3,3.33 C3.72,3.33 3.17,2.95 3.17,2.3 L3.17,2.3 Z"></path>
        </g>
    </g>
</svg>