<?xml version="1.0" encoding="UTF-8"?>
<svg width="12px" height="16px" viewBox="0 0 12 16" version="1.1" xmlns="http://www.w3.org/2000/svg" xmlns:xlink="http://www.w3.org/1999/xlink">
    <!-- Generator: Sketch 40.3 (33839) - http://www.bohemiancoding.com/sketch -->
    <title>link-external</title>
    <desc>Created with Sketch.</desc>
    <defs></defs>
    <g stroke="none" stroke-width="1" fill-rule="evenodd">
        <g>
            <path d="M11,10 L12,10 L12,13 C12,13.55 11.55,14 11,14 L1,14 C0.45,14 0,13.55 0,13 L0,3 C0,2.45 0.45,2 1,2 L4,2 L4,3 L1,3 L1,13 L11,13 L11,10 L11,10 Z M6,2 L8.25,4.25 L5,7.5 L6.5,9 L9.75,5.75 L12,8 L12,2 L6,2 L6,2 Z"></path>
        </g>
    </g>
</svg>