<?xml version="1.0" encoding="UTF-8"?>
<svg width="8px" height="16px" viewBox="0 0 8 16" version="1.1" xmlns="http://www.w3.org/2000/svg" xmlns:xlink="http://www.w3.org/1999/xlink">
    <!-- Generator: Sketch 40.3 (33839) - http://www.bohemiancoding.com/sketch -->
    <title>primitive-dot</title>
    <desc>Created with Sketch.</desc>
    <defs></defs>
    <g stroke="none" stroke-width="1" fill-rule="evenodd">
        <g>
            <path d="M0,8 C0,5.8 1.8,4 4,4 C6.2,4 8,5.8 8,8 C8,10.2 6.2,12 4,12 C1.8,12 0,10.2 0,8 L0,8 Z"></path>
        </g>
    </g>
</svg>