<?xml version="1.0" encoding="UTF-8"?>
<svg width="14px" height="16px" viewBox="0 0 14 16" version="1.1" xmlns="http://www.w3.org/2000/svg" xmlns:xlink="http://www.w3.org/1999/xlink">
    <!-- Generator: Sketch 40.3 (33839) - http://www.bohemiancoding.com/sketch -->
    <title>reply</title>
    <desc>Created with Sketch.</desc>
    <defs></defs>
    <g stroke="none" stroke-width="1" fill-rule="evenodd">
        <g>
            <path d="M6,3.5 C9.92,3.94 14,6.625 14,13.5 C11.688,8.438 9.25,7.5 6,7.5 L6,11 L0.5,5.5 L6,0 L6,3.5 Z"></path>
        </g>
    </g>
</svg>